<?xml version="1.0" encoding="UTF-8"?>
<svg width="100mm" height="100mm" version="1.1" viewBox="0 0 100 100" xmlns="http://www.w3.org/2000/svg">
 <circle id="circle" cx="50" cy="50" r="48.193" fill="#adadad" stroke="#000" stroke-width="3.6145"/>
 <g id="fox">
  <g id="shape">
   <path d="m93.842 69.543-31.479-44.584-6.1563 7.7553-9.6584-0.27548-4.6493-7.2219-7.2088 8.7577-6.4785 16.087 1.0553 33.605 6.3492 1.2788 28.333-16.297 17.176 17.325c4.5983-2.7202 8.7688-7.9706 12.716-16.43z" color="#000000" fill="#7a7a7a" stroke-width="3.6145" style="-inkscape-stroke:none"/>
   <path d="m62.447 21.947-7.0938 8.9355-7.8008-0.22266-5.4746-8.5039-8.9609 10.885-6.7227 16.699 1.1113 35.416 8.4219 1.6953 27.717-15.943 17.189 17.338 1.2129-0.7168c5.0632-2.9952 9.4014-8.5805 13.434-17.223l0.44336-0.94922-0.60547-0.85547zm-0.16797 6.0273 29.451 41.711c-3.3693 6.9645-6.8469 11.386-10.422 13.904l-17.055-17.201-28.949 16.65-4.2754-0.86133-1-31.793 6.2344-15.477 5.457-6.6289 3.8242 5.9395 11.516 0.32812z" color="#000000" style="-inkscape-stroke:none"/>
  </g>
  <g>
   <path id="muzzle" d="m29.021 75.332 0.24627 8.3352 6.3492 1.2788 9.0848-5.5342z" fill="#616161" stroke="#000" stroke-width="2.4096"/>
   <path id="xl" d="m36.149 43.263 1.7037-1.7037 2.1602 2.1584 2.1602-2.1584 1.7037 1.7037-2.1601 2.1596 2.1601 2.1608-1.7037 1.7037-2.1567-2.1535-2.1637 2.1535-1.7037-1.7037 2.1606-2.1556z"/>
   <path id="xr" d="m52.044 43.894 1.7037-1.7037 2.161 2.161 2.1594-2.161 1.7037 1.7037-2.1587 2.1597 2.1587 2.1608-1.7037 1.7037-2.1588-2.1592-2.1616 2.1592-1.7037-1.7037 2.1599-2.1599z"/>
  </g>
 </g>
</svg>
